…
# Direct API Interaction

These will be functions the user can call to have custom control over
the returns and interactions with the API.

## `kgl_competitions_list_.*()`

Browse or search for Kaggle compeitions.

``` r
## look through all competitions (paginated)
comps1 <- kgl_competitions_list()
comps1
#> # A tibble: 20 x 23
#>      id ref     title     url      description     organization_na… organization_ref category reward
#>   <int> <chr>   <chr>     <chr>    <chr>           <chr>            <chr>            <chr>    <chr> 
#> 1 21733 contra… Contradi… https:/… Detecting cont… Kaggle           kaggle           Getting… Prizes
#> 2 21755 gan-ge… I’m Some… https:/… Use GANs to cr… Kaggle           kaggle           Getting… Prizes
#> 3 21154 tpu-ge… Petals t… https:/… Getting Starte… Kaggle           kaggle           Getting… Knowl…
#> 4  3004 digit-… Digit Re… https:/… Learn computer… Kaggle           kaggle           Getting… Knowl…
#> 5  3136 titanic Titanic … https:/… Start here! Pr… Kaggle           kaggle           Getting… Knowl…
#> # … with 15 more rows, and 14 more variables: deadline <dttm>, kernel_count <int>,
#> #   team_count <int>, user_has_entered <lgl>, user_rank <lgl>, merger_deadline <dttm>,
#> #   new_entrant_deadline <dttm>, enabled_date <dttm>, max_daily_submissions <int>,
#> #   max_team_size <int>, evaluation_metric <chr>, awards_points <lgl>,
#> #   is_kernels_submissions_only <lgl>, submissions_disabled <lgl>

## it's paginated, so to see page two:
comps2 <- kgl_competitions_list(page = 2)
comps2
#> # A tibble: 20 x 23
#>      id ref     title    url       description    organization_name organization_ref category reward
#>   <int> <chr>   <chr>    <chr>     <chr>          <chr>             <chr>            <chr>    <chr> 
#> 1 23304 jane-s… Jane St… https://… "Test your mo… Jane Street Group jane-street-gro… Featured $100,…
#> 2 23652 seti-b… SETI Br… https://… "Find extrate… Berkeley SETI Re… berkeleyseti     Research $15,0…
#> 3 25401 hungry… Hungry … https://… "Don't. Stop.… Kaggle            kaggle           Playgro… Prizes
#> 4 26680 siim-c… SIIM-FI… https://… "Identify and… Society for Imag… siim             Featured $100,…
#> 5 26933 google… Google … https://… "Improve high… Google            google           Research $10,0…
#> # … with 15 more rows, and 14 more variables: deadline <dttm>, kernel_count <int>,
#> #   team_count <int>, user_has_entered <lgl>, user_rank <lgl>, merger_deadline <dttm>,
#> #   new_entrant_deadline <dttm>, enabled_date <dttm>, max_daily_submissions <int>,
#> #   max_team_size <int>, evaluation_metric <chr>, awards_points <lgl>,
#> #   is_kernels_submissions_only <lgl>, submissions_disabled <lgl>

## search by keyword for competitions
imagecomps <- kgl_competitions_list(search = "image")
imagecomps
#> # A tibble: 20 x 23
#>      id ref      title    url      description     organization_na… organization_ref category reward
#>   <int> <chr>    <chr>    <chr>    <chr>           <chr>            <chr>            <chr>    <chr> 
#> 1 29761 landmar… Google … https:/… Given an image… Google           google           Research Swag  
#> 2 19991 alaska2… ALASKA2… https:/… Detect secret … Troyes Universi… UTT              Research $25,0…
#> 3 10418 human-p… Human P… https:/… Classify subce… Human Protein A… human-protein-a… Featured $37,0…
#> 4 14420 recursi… Recursi… https:/… CellSignal: Di… Recursion Pharm… recursionpharma  Research $13,0…
#> 5  6927 carvana… Carvana… https:/… Automatically … Carvana          carvana          Featured $25,0…
#> # … with 15 more rows, and 14 more variables: deadline <dttm>, kernel_count <int>,
#> #   team_count <int>, user_has_entered <lgl>, user_rank <lgl>, merger_deadline <dttm>,
#> #   new_entrant_deadline <dttm>, enabled_date <dttm>, max_daily_submissions <int>,
#> #   max_team_size <int>, evaluation_metric <chr>, awards_points <lgl>,
#> #   is_kernels_submissions_only <lgl>, submissions_disabled <lgl>
```
…
The data is available in the `_kaggle_data` directory.

``` r
list.files("_kaggle_data")
#> [1] "gender_submission"     "gender_submission.csv" "meta"                  "test"                 
#> [5] "test.csv"              "train"                 "train.csv"
```

The data is also returned in a list and available in the variable you
assigned it to, in this example its `kgl_data`.

``` r
kgl_data$train
#> # A tibble: 891 x 12
#>   PassengerId Survived Pclass Name             Sex     Age SibSp Parch Ticket    Fare Cabin Embarked
#>         <dbl>    <dbl>  <dbl> <chr>            <chr> <dbl> <dbl> <dbl> <chr>    <dbl> <chr> <chr>   
#> 1           1        0      3 Braund, Mr. Owe… male     22     1     0 A/5 211…  7.25 <NA>  S       
#> 2           2        1      1 Cumings, Mrs. J… fema…    38     1     0 PC 17599 71.3  C85   C       
#> 3           3        1      3 Heikkinen, Miss… fema…    26     0     0 STON/O2…  7.92 <NA>  S       
#> 4           4        1      1 Futrelle, Mrs. … fema…    35     1     0 113803   53.1  C123  S       
#> 5           5        0      3 Allen, Mr. Will… male     35     0     0 373450    8.05 <NA>  S       
#> # … with 886 more rows
kgl_data$test
#> # A tibble: 418 x 11
#>   PassengerId Pclass Name                       Sex      Age SibSp Parch Ticket  Fare Cabin Embarked
#>         <dbl>  <dbl> <chr>                      <chr>  <dbl> <dbl> <dbl> <chr>  <dbl> <chr> <chr>   
#> 1         892      3 Kelly, Mr. James           male    34.5     0     0 330911  7.83 <NA>  Q       
#> 2         893      3 Wilkes, Mrs. James (Ellen… female  47       1     0 363272  7    <NA>  S       
#> 3         894      2 Myles, Mr. Thomas Francis  male    62       0     0 240276  9.69 <NA>  Q       
#> 4         895      3 Wirz, Mr. Albert           male    27       0     0 315154  8.66 <NA>  S       
#> 5         896      3 Hirvonen, Mrs. Alexander … female  22       1     1 31012… 12.3  <NA>  S       
#> # … with 413 more rows
kgl_data$gender_submission
#> # A tibble: 418 x 2
#>   PassengerId Survived
#>         <dbl>    <dbl>
#> 1         892        0
#> 2         893        1
#> 3         894        0
#> 4         895        0
#> 5         896        1
#> # … with 413 more rows
```

## `kgl_datasets_.*()`

Get a list of all of the datasets.

``` r
## get competitions data list
datasets <- kgl_datasets_list()
datasets
#> # A tibble: 20 x 23
#>        id ref      subtitle      creator_name creator_url total_bytes url        last_updated       
#>     <int> <chr>    <chr>         <chr>        <chr>             <dbl> <chr>      <dttm>             
#> 1 1187302 gpreda/… r/VaccineMyt… Gabriel Pre… gpreda           238818 https://w… 2021-08-22 13:49:51
#> 2 1165452 crowww/… A Large-Scal… Oğuzhan Ulu… crowww       3482438117 https://w… 2021-04-28 17:03:01
#> 3 1167622 imspars… A curated co… Sparsh Gupta imsparsh    23086004822 https://w… 2021-02-18 14:12:19
#> 4 1193668 promptc… A full sampl… PromptCloud  promptcloud    43882568 https://w… 2021-03-05 06:59:52
#> 5 1167113 dhruvil… Complete tex… Dhruvil Dave dhruvildave  1935076177 https://w… 2021-07-03 18:37:20
#> # … with 15 more rows, and 15 more variables: download_count <int>, is_private <lgl>,
#> #   is_reviewed <lgl>, is_featured <lgl>, license_name <chr>, description <lgl>, owner_name <chr>,
#> #   owner_ref <chr>, kernel_count <int>, title <chr>, topic_count <int>, view_count <int>,
#> #   vote_count <int>, current_version_number <int>, usability_rating <dbl>
```

## `kgl_competitions_leaderboard_.*()`

View the leaderboard for a given competition.

``` r
## get competitions data list
c1_leaderboard <- kgl_competitions_leaderboard_view(comps1$ref[1])
c1_leaderboard
#> # A tibble: 50 x 4
#>   team_id team_name                       submission_date     score
#>     <int> <chr>                           <dttm>              <dbl>
#> 1 6997448 cindylee1018                    2021-08-19 12:58:13 0.956
#> 2 7053758 David Roberts                   2021-07-06 18:18:40 0.950
#> 3 5824147 YUZHE NI                        2021-08-07 04:06:06 0.945
#> 4 7028450 OrS The Crazy DS and Yaniv Roth 2021-08-01 14:11:17 0.943
#> 5 6840575 Pradeep Kumar Mahato            2021-08-25 13:37:23 0.941
#> # … with 45 more rows
```
…
