Kaggle API • kaggler
…
Download all datafiles into a zip

kgl_competitions_data_download_all(
  id = "titanic",
  output_dir = "."
)

Leaderboard

View the top 50 spots

kgl_competitions_leaderboard_view("titanic")

#> # A tibble: 50 × 4
#>    team_id team_name           submission_date     score
#>      <int> <chr>               <dttm>              <dbl>
#>  1 2596702 Itaegyun            2021-07-12 08:15:47     1
#>  2 6650429 arduin              2021-07-12 12:00:53     1
#>  3 6931429 Nguyen Duc Tung (K… 2021-07-14 00:57:27     1
#>  4 6931547 Bach Nguyen #3      2021-07-14 05:27:44     1
#>  5 6931673 DDWanderer          2021-07-14 02:00:10     1
#>  6 6931524 he130230            2021-07-14 02:11:04     1
#>  7 6931497 (K12_HN) Pham Vu T… 2021-07-14 02:55:22     1
#>  8 6933163 HE130793            2021-07-14 04:21:24     1
#>  9 7006924 hebimonhp           2021-07-14 04:08:43     1
#> 10 6931521 Duc North           2021-07-14 04:45:48     1
#> # … with 40 more rows
…
